<svg width="24" height="24" viewBox="0 0 24 24" fill="none" xmlns="http://www.w3.org/2000/svg">
<g clip-path="url(#clip0_417_5)">
<path d="M21.805 5.99481H21.5064V3.09482C21.5064 1.8845 20.5217 0.89978 19.3113 0.89978H3.39063C1.63377 0.89978 0.185232 2.24358 0.0180168 3.95723C-0.00752012 4.07832 0.00157327 2.99936 0.00157327 19.7111C0.00157327 21.5798 1.52187 23.1001 3.39058 23.1001H21.8049C23.0153 23.1001 24 22.1154 24 20.9051V8.18985C24 6.97954 23.0154 5.99481 21.805 5.99481ZM3.39063 2.40754H19.3113C19.6903 2.40754 19.9987 2.71587 19.9987 3.09487V5.99486H3.39063C2.38268 5.99486 1.55753 5.19799 1.51155 4.2012C1.55749 3.20437 2.38263 2.40754 3.39063 2.40754ZM21.805 21.5924H3.39063C2.35328 21.5924 1.50933 20.7484 1.50933 19.7111V6.9312C2.04792 7.29196 2.6951 7.50252 3.39063 7.50252H21.805C22.184 7.50252 22.4923 7.81085 22.4923 8.18985V11.2461H16.8192C14.8871 11.2461 13.3152 12.8179 13.3152 14.75C13.3152 16.6821 14.8871 18.2539 16.8192 18.2539H22.4923V20.9051C22.4923 21.2841 22.184 21.5924 21.805 21.5924ZM22.4923 16.7463H16.8192C15.7184 16.7463 14.8229 15.8508 14.8229 14.7501C14.8229 13.6493 15.7184 12.7538 16.8192 12.7538H22.4923V16.7463Z" fill="#2E86C6"/>
<path d="M17.0974 15.8427C17.7008 15.8427 18.1899 15.3535 18.1899 14.7501C18.1899 14.1467 17.7008 13.6576 17.0974 13.6576C16.494 13.6576 16.0049 14.1467 16.0049 14.7501C16.0049 15.3535 16.494 15.8427 17.0974 15.8427Z" fill="#2E86C6"/>
</g>
<defs>
<clipPath id="clip0_417_5">
<rect width="24" height="24" fill="white"/>
</clipPath>
</defs>
</svg>
