<svg width="43" height="44" viewBox="0 0 43 44" fill="none" xmlns="http://www.w3.org/2000/svg">
<path d="M34.9375 30.063C33.9806 30.068 33.0428 30.3312 32.2231 30.8249L27.0994 25.6998C27.8294 24.6042 28.219 23.3171 28.219 22.0005C28.219 20.6839 27.8294 19.3968 27.0994 18.3011L30.5219 14.8786C31.3877 15.2956 32.3732 15.3928 33.3037 15.1528C34.2343 14.9128 35.0499 14.3512 35.606 13.5675C36.1621 12.7838 36.4229 11.8285 36.3422 10.8709C36.2614 9.91333 35.8443 9.01523 35.1648 8.3357C34.4853 7.65618 33.5872 7.2391 32.6296 7.15835C31.672 7.0776 30.7167 7.33838 29.933 7.89451C29.1493 8.45064 28.5877 9.26622 28.3477 10.1968C28.1077 11.1273 28.2049 12.1128 28.6219 12.9786L25.1994 16.4011C24.1037 15.6711 22.8166 15.2815 21.5 15.2815C20.1834 15.2815 18.8963 15.6711 17.8007 16.4011L12.6756 11.276C13.1691 10.4567 13.4323 9.51942 13.4375 8.56299C13.4375 7.49992 13.1223 6.46072 12.5317 5.5768C11.941 4.69289 11.1016 4.00396 10.1194 3.59714C9.13727 3.19032 8.05654 3.08387 7.01389 3.29127C5.97124 3.49867 5.01351 4.01058 4.2618 4.76229C3.5101 5.514 2.99818 6.47173 2.79078 7.51438C2.58339 8.55703 2.68983 9.63776 3.09665 10.6199C3.50347 11.6021 4.1924 12.4415 5.07631 13.0321C5.96023 13.6228 6.99943 13.938 8.0625 13.938C9.01939 13.933 9.95718 13.6698 10.7769 13.1761L15.9006 18.3011C15.1706 19.3968 14.7811 20.6839 14.7811 22.0005C14.7811 23.3171 15.1706 24.6042 15.9006 25.6998L10.7755 30.8249C9.9562 30.3315 9.01892 30.0683 8.0625 30.063C6.99943 30.063 5.96023 30.3782 5.07631 30.9688C4.1924 31.5595 3.50347 32.3989 3.09665 33.3811C2.68983 34.3632 2.58339 35.444 2.79078 36.4866C2.99818 37.5293 3.5101 38.487 4.2618 39.2387C5.01351 39.9904 5.97124 40.5023 7.01389 40.7097C8.05654 40.9171 9.13727 40.8107 10.1194 40.4039C11.1016 39.997 11.941 39.3081 12.5317 38.4242C13.1223 37.5403 13.4375 36.5011 13.4375 35.438C13.4325 34.4811 13.1693 33.5433 12.6756 32.7236L17.8007 27.5999C18.5153 28.0762 19.3151 28.4102 20.1563 28.5835V32.9977C19.2597 33.3147 18.504 33.9385 18.0229 34.7587C17.5417 35.5789 17.366 36.5429 17.5268 37.4801C17.6876 38.4174 18.1746 39.2676 18.9016 39.8806C19.6287 40.4935 20.5491 40.8297 21.5 40.8297C22.451 40.8297 23.3713 40.4935 24.0984 39.8806C24.8254 39.2676 25.3124 38.4174 25.4732 37.4801C25.634 36.5429 25.4583 35.5789 24.9771 34.7587C24.496 33.9385 23.7403 33.3147 22.8438 32.9977V28.5835C23.6849 28.4102 24.4847 28.0762 25.1994 27.5999L30.3244 32.725C29.8309 33.5443 29.5677 34.4816 29.5625 35.438C29.5625 36.5011 29.8777 37.5403 30.4684 38.4242C31.059 39.3081 31.8984 39.997 32.8806 40.4039C33.8627 40.8107 34.9435 40.9171 35.9861 40.7097C37.0288 40.5023 37.9865 39.9904 38.7382 39.2387C39.4899 38.487 40.0018 37.5293 40.2092 36.4866C40.4166 35.444 40.3102 34.3632 39.9034 33.3811C39.4965 32.3989 38.8076 31.5595 37.9237 30.9688C37.0398 30.3782 36.0006 30.063 34.9375 30.063ZM21.5 17.9692C22.2973 17.9692 23.0767 18.2057 23.7396 18.6486C24.4026 19.0916 24.9193 19.7212 25.2244 20.4578C25.5295 21.1944 25.6093 22.005 25.4538 22.787C25.2983 23.5689 24.9143 24.2872 24.3505 24.851C23.7868 25.4148 23.0685 25.7987 22.2865 25.9543C21.5045 26.1098 20.6939 26.03 19.9573 25.7249C19.2207 25.4198 18.5911 24.9031 18.1481 24.2401C17.7052 23.5772 17.4688 22.7978 17.4688 22.0005C17.4698 20.9317 17.8949 19.9069 18.6507 19.1511C19.4064 18.3954 20.4312 17.9703 21.5 17.9692ZM5.375 8.56299C5.375 8.03145 5.53262 7.51185 5.82793 7.0699C6.12323 6.62794 6.54296 6.28348 7.03404 6.08006C7.52512 5.87665 8.06548 5.82343 8.58681 5.92713C9.10813 6.03083 9.587 6.28679 9.96285 6.66264C10.3387 7.0385 10.5947 7.51736 10.6984 8.03869C10.8021 8.56001 10.7488 9.10038 10.5454 9.59145C10.342 10.0825 9.99756 10.5023 9.5556 10.7976C9.11364 11.0929 8.59404 11.2505 8.0625 11.2505C7.34995 11.2498 6.66679 10.9664 6.16294 10.4626C5.65909 9.95871 5.37571 9.27554 5.375 8.56299ZM8.0625 38.1255C7.53097 38.1255 7.01137 37.9679 6.56941 37.6726C6.12745 37.3773 5.78299 36.9575 5.57958 36.4665C5.37617 35.9754 5.32294 35.435 5.42664 34.9137C5.53034 34.3924 5.7863 33.9135 6.16215 33.5376C6.53801 33.1618 7.01687 32.9058 7.5382 32.8021C8.05952 32.6984 8.59989 32.7517 9.09097 32.9551C9.58204 33.1585 10.0018 33.5029 10.2971 33.9449C10.5924 34.3869 10.75 34.9065 10.75 35.438C10.7493 36.1505 10.4659 36.8337 9.96207 37.3376C9.45822 37.8414 8.77505 38.1248 8.0625 38.1255ZM34.9375 38.1255C34.406 38.1255 33.8864 37.9679 33.4444 37.6726C33.0025 37.3773 32.658 36.9575 32.4546 36.4665C32.2512 35.9754 32.1979 35.435 32.3016 34.9137C32.4053 34.3924 32.6613 33.9135 33.0372 33.5376C33.413 33.1618 33.8919 32.9058 34.4132 32.8021C34.9345 32.6984 35.4749 32.7517 35.966 32.9551C36.457 33.1585 36.8768 33.5029 37.1721 33.9449C37.4674 34.3869 37.625 34.9065 37.625 35.438C37.6239 36.1504 37.3405 36.8334 36.8367 37.3372C36.3329 37.8409 35.65 38.1244 34.9375 38.1255Z" fill="#2E86C6"/>
</svg>
