<svg width="798" height="684" viewBox="0 0 798 684" fill="none" xmlns="http://www.w3.org/2000/svg">
<g opacity="0.1">
<path d="M552.293 140.241L766.155 -187" stroke="#1368A7" stroke-width="73.83"/>
<path d="M475.43 143.465L689.292 -175.742" stroke="#9FC9EB" stroke-width="73.83"/>
<path d="M405 146.202L612.43 -159.664" stroke="#3086C7" stroke-width="73.83"/>
</g>
<path d="M108 630C108 659.823 83.8234 684 54 684C24.1766 684 0 659.823 0 630C0 600.177 24.1766 576 54 576C83.8234 576 108 600.177 108 630ZM27 630C27 644.912 39.0883 657 54 657C68.9117 657 81 644.912 81 630C81 615.088 68.9117 603 54 603C39.0883 603 27 615.088 27 630Z" fill="#E1EDF6"/>
</svg>
