<svg width="43" height="43" viewBox="0 0 43 43" fill="none" xmlns="http://www.w3.org/2000/svg">
<g clip-path="url(#clip0_437_2)">
<path d="M10.75 17.9167V26.875H32.25V17.9167H10.75ZM23.2917 23.2917H12.5417V21.5H23.2917V23.2917ZM25.9792 23.2917C25.802 23.2917 25.6288 23.2391 25.4815 23.1407C25.3341 23.0423 25.2193 22.9024 25.1515 22.7387C25.0837 22.575 25.066 22.3949 25.1005 22.2211C25.1351 22.0473 25.2204 21.8877 25.3457 21.7624C25.471 21.6371 25.6306 21.5518 25.8044 21.5172C25.9782 21.4827 26.1583 21.5004 26.322 21.5682C26.4857 21.636 26.6256 21.7508 26.724 21.8982C26.8225 22.0455 26.875 22.2187 26.875 22.3959C26.875 22.6334 26.7806 22.8613 26.6126 23.0293C26.4446 23.1973 26.2168 23.2917 25.9792 23.2917ZM29.5625 23.2917C29.3853 23.2917 29.2121 23.2391 29.0648 23.1407C28.9175 23.0423 28.8027 22.9024 28.7349 22.7387C28.6671 22.575 28.6493 22.3949 28.6839 22.2211C28.7184 22.0473 28.8038 21.8877 28.929 21.7624C29.0543 21.6371 29.214 21.5518 29.3877 21.5172C29.5615 21.4827 29.7416 21.5004 29.9053 21.5682C30.069 21.636 30.2089 21.7508 30.3074 21.8982C30.4058 22.0455 30.4583 22.2187 30.4583 22.3959C30.4583 22.6334 30.364 22.8613 30.196 23.0293C30.0279 23.1973 29.8001 23.2917 29.5625 23.2917Z" fill="#2E86C6"/>
<path d="M10.75 30.4583V39.4166H32.25V30.4583H10.75ZM23.2917 35.8333H12.5417V34.0416H23.2917V35.8333ZM25.9792 35.8333C25.802 35.8333 25.6288 35.7808 25.4815 35.6823C25.3341 35.5839 25.2193 35.444 25.1515 35.2803C25.0837 35.1166 25.066 34.9365 25.1005 34.7627C25.1351 34.5889 25.2204 34.4293 25.3457 34.304C25.471 34.1787 25.6306 34.0934 25.8044 34.0589C25.9782 34.0243 26.1583 34.042 26.322 34.1098C26.4857 34.1776 26.6256 34.2925 26.724 34.4398C26.8225 34.5871 26.875 34.7603 26.875 34.9375C26.875 35.1751 26.7806 35.4029 26.6126 35.5709C26.4446 35.7389 26.2168 35.8333 25.9792 35.8333ZM29.5625 35.8333C29.3853 35.8333 29.2121 35.7808 29.0648 35.6823C28.9175 35.5839 28.8027 35.444 28.7349 35.2803C28.6671 35.1166 28.6493 34.9365 28.6839 34.7627C28.7184 34.5889 28.8038 34.4293 28.929 34.304C29.0543 34.1787 29.214 34.0934 29.3877 34.0589C29.5615 34.0243 29.7416 34.042 29.9053 34.1098C30.069 34.1776 30.2089 34.2925 30.3074 34.4398C30.4058 34.5871 30.4583 34.7603 30.4583 34.9375C30.4583 35.1751 30.364 35.4029 30.196 35.5709C30.0279 35.7389 29.8001 35.8333 29.5625 35.8333Z" fill="#2E86C6"/>
<path d="M41.1456 14.3334C40.351 13.3498 39.3696 12.5331 38.258 11.9304C37.1464 11.3277 35.9266 10.9509 34.6687 10.8217C34.1298 8.09164 32.7556 5.59654 30.7365 3.68165C28.7173 1.76676 26.1529 0.526759 23.398 0.133214C20.6432 -0.260332 17.8342 0.212035 15.3596 1.48496C12.885 2.75788 10.8672 4.76842 9.5854 7.23841C8.75905 7.33669 7.94719 7.53213 7.16665 7.8207C5.07216 8.55588 3.25772 9.92346 1.97408 11.7344C0.690437 13.5454 0.000976562 15.7104 0.000976562 17.9302C0.000976562 20.15 0.690437 22.3149 1.97408 24.1259C3.25772 25.9369 5.07216 27.3045 7.16665 28.0397V14.3334H35.8333V28.4876C37.8563 28.0736 39.6743 26.9739 40.9801 25.3743C42.2859 23.7747 42.9994 21.7733 43 19.7084C42.9941 17.7608 42.3419 15.8703 41.1456 14.3334V14.3334Z" fill="#2E86C6"/>
</g>
<defs>
<clipPath id="clip0_437_2">
<rect width="43" height="43" fill="white"/>
</clipPath>
</defs>
</svg>
